verilog/mips_microprocessor/obj/mips.vcd
$date
	Sun May  1 22:31:32 2022
$end
$version
	Icarus Verilog
$end
$timescale
	1s
$end
$scope module flopenr $end
$var wire 1 ! clk $end
$var wire 8 " d [7:0] $end
$var wire 1 # en $end
$var wire 1 $ reset $end
$var reg 8 % q [7:0] $end
$upscope $end
$scope module testbench $end
$var wire 32 & writedata [31:0] $end
$var wire 1 ' memwrite $end
$var wire 32 ( dataadr [31:0] $end
$var reg 1 ) clk $end
$var reg 1 * reset $end
$scope module dut $end
$var wire 1 ) clk $end
$var wire 1 * reset $end
$var wire 32 + writedata [31:0] $end
$var wire 32 , readdata [31:0] $end
$var wire 32 - pc [31:0] $end
$var wire 1 ' memwrite $end
$var wire 32 . instr [31:0] $end
$var wire 32 / dataadr [31:0] $end
$scope module dmem $end
$var wire 1 ) clk $end
$var wire 32 0 rd [31:0] $end
$var wire 1 ' we $end
$var wire 32 1 wd [31:0] $end
$var wire 32 2 a [31:0] $end
$upscope $end
$scope module imem $end
$var wire 6 3 a [5:0] $end
$var wire 32 4 rd [31:0] $end
$upscope $end
$scope module mips $end
$var wire 1 ) clk $end
$var wire 32 5 instr [31:0] $end
$var wire 32 6 readdata [31:0] $end
$var wire 1 * reset $end
$var wire 1 7 zero $end
$var wire 32 8 writedata [31:0] $end
$var wire 1 9 regwrite $end
$var wire 1 : regdst $end
$var wire 1 ; pcsrc $end
$var wire 32 < pc [31:0] $end
$var wire 1 ' memwrite $end
$var wire 1 = memtoreg $end
$var wire 1 > jump $end
$var wire 2 ? alusrc [1:0] $end
$var wire 32 @ aluout [31:0] $end
$var wire 5 A alucontrol [4:0] $end
$scope module c $end
$var wire 6 B funct [5:0] $end
$var wire 6 C op [5:0] $end
$var wire 1 ; pcsrc $end
$var wire 1 7 zero $end
$var wire 1 9 regwrite $end
$var wire 1 : regdst $end
$var wire 1 ' memwrite $end
$var wire 1 = memtoreg $end
$var wire 1 > jump $end
$var wire 1 D branch $end
$var wire 2 E alusrc [1:0] $end
$var wire 8 F aluop [7:0] $end
$var wire 5 G alucontrol [4:0] $end
$scope module ad $end
$var wire 6 H funct [5:0] $end
$var wire 8 I aluop [7:0] $end
$var reg 5 J alucontrol [4:0] $end
$upscope $end
$scope module md $end
$var wire 6 K op [5:0] $end
$var wire 1 9 regwrite $end
$var wire 1 : regdst $end
$var wire 1 ' memwrite $end
$var wire 1 = memtoreg $end
$var wire 1 > jump $end
$var wire 1 D branch $end
$var wire 2 L alusrc [1:0] $end
$var wire 8 M aluop [7:0] $end
$var reg 16 N controls [15:0] $end
$upscope $end
$upscope $end
$scope module dp $end
$var wire 5 O alucontrol [4:0] $end
$var wire 2 P alusrc [1:0] $end
$var wire 1 ) clk $end
$var wire 32 Q instr [31:0] $end
$var wire 1 > jump $end
$var wire 1 = memtoreg $end
$var wire 1 ; pcsrc $end
$var wire 32 R readdata [31:0] $end
$var wire 1 : regdst $end
$var wire 1 9 regwrite $end
$var wire 1 * reset $end
$var wire 1 7 zero $end
$var wire 5 S writereg [4:0] $end
$var wire 32 T writedata [31:0] $end
$var wire 32 U srcb [31:0] $end
$var wire 32 V srca [31:0] $end
$var wire 32 W signimmsh16 [31:0] $end
$var wire 32 X signimmsh [31:0] $end
$var wire 32 Y signimm [31:0] $end
$var wire 32 Z result [31:0] $end
$var wire 32 [ pcplus4 [31:0] $end
$var wire 32 \ pcnextbr [31:0] $end
$var wire 32 ] pcnext [31:0] $end
$var wire 32 ^ pcbranch [31:0] $end
$var wire 32 _ pc [31:0] $end
$var wire 32 ` aluout [31:0] $end
$scope module alu $end
$var wire 5 a f [4:0] $end
$var wire 5 b shamt [4:0] $end
$var wire 1 7 zero $end
$var wire 32 c b [31:0] $end
$var wire 32 d a [31:0] $end
$var reg 32 e result [31:0] $end
$upscope $end
$scope module immsh $end
$var wire 32 f y [31:0] $end
$var wire 32 g a [31:0] $end
$upscope $end
$scope module immsh16 $end
$var wire 16 h a [15:0] $end
$var wire 32 i y [31:0] $end
$upscope $end
$scope module pcadd1 $end
$var wire 32 j b [31:0] $end
$var wire 32 k y [31:0] $end
$var wire 32 l a [31:0] $end
$upscope $end
$scope module pcadd2 $end
$var wire 32 m a [31:0] $end
$var wire 32 n b [31:0] $end
$var wire 32 o y [31:0] $end
$upscope $end
$scope module pcbrmux $end
$var wire 32 p d0 [31:0] $end
$var wire 32 q d1 [31:0] $end
$var wire 1 ; s $end
$var wire 32 r y [31:0] $end
$upscope $end
$scope module pcmux $end
$var wire 32 s d0 [31:0] $end
$var wire 32 t d1 [31:0] $end
$var wire 1 > s $end
$var wire 32 u y [31:0] $end
$upscope $end
$scope module pcreg $end
$var wire 1 ) clk $end
$var wire 32 v d [31:0] $end
$var wire 1 * reset $end
$var reg 32 w q [31:0] $end
$upscope $end
$scope module resmux $end
$var wire 32 x d0 [31:0] $end
$var wire 32 y d1 [31:0] $end
$var wire 1 = s $end
$var wire 32 z y [31:0] $end
$upscope $end
$scope module rf $end
$var wire 1 ) clk $end
$var wire 5 { ra1 [4:0] $end
$var wire 5 | ra2 [4:0] $end
$var wire 32 } wd3 [31:0] $end
$var wire 1 9 we3 $end
$var wire 5 ~ wa3 [4:0] $end
$var wire 32 !" rd2 [31:0] $end
$var wire 32 "" rd1 [31:0] $end
$upscope $end
$scope module se $end
$var wire 16 #" a [15:0] $end
$var wire 32 $" y [31:0] $end
$upscope $end
$scope module srcbmux $end
$var wire 32 %" d0 [31:0] $end
$var wire 32 &" d1 [31:0] $end
$var wire 32 '" d2 [31:0] $end
$var wire 2 (" s [1:0] $end
$var reg 32 )" y [31:0] $end
$upscope $end
$scope module wrmux $end
$var wire 5 *" d0 [4:0] $end
$var wire 5 +" d1 [4:0] $end
$var wire 1 : s $end
$var wire 5 ," y [4:0] $end
$upscope $end
$upscope $end
$upscope $end
$upscope $end
$upscope $end
$enddefinitions $end
#0
$dumpvars
b10 ,"
b0 +"
b10 *"
b101 )"
b1 ("
b1010000000000000000 '"
b101 &"
bx %"
b101 $"
b101 #"
b0 ""
bx !"
b10 ~
b101 }
b10 |
b0 {
b101 z
bx y
b101 x
b0 w
b100 v
b100 u
b10000000000000010100 t
b100 s
b100 r
b11000 q
b100 p
b11000 o
b10100 n
b100 m
b0 l
b100 k
b100 j
b1010000000000000000 i
b101 h
b101 g
b10100 f
b101 e
b0 d
b101 c
b0 b
b0 a
b101 `
b0 _
b11000 ^
b100 ]
b100 \
b100 [
b101 Z
b101 Y
b10100 X
b1010000000000000000 W
b0 V
b101 U
bx T
b10 S
bx R
b100000000000100000000000000101 Q
b1 P
b0 O
b1001000000001100 N
b1100 M
b1 L
b1000 K
b0 J
b1100 I
b101 H
b0 G
b1100 F
b1 E
0D
b1000 C
b101 B
b0 A
b101 @
b1 ?
0>
0=
b0 <
0;
0:
19
bx 8
07
bx 6
b100000000000100000000000000101 5
b100000000000100000000000000101 4
b0 3
b101 2
bx 1
bx 0
b101 /
b100000000000100000000000000101 .
b0 -
bx ,
bx +
1*
1)
b101 (
0'
bx &
bx %
z$
z#
bz "
z!
$end
#5
0)
#10
b101 &
b101 +
b101 1
b101 8
b101 T
b101 !"
b101 %"
1)
#15
0)
#20
1)
#22
0*
#25
0)
#30
b1100 Z
b1100 z
b1100 }
b1100 (
b1100 /
b1100 2
b1100 @
b1100 `
b1100 e
b1100 x
bx &
bx +
bx 1
bx 8
bx T
bx !"
bx %"
b11 S
b11 ~
b11 ,"
b110000 X
b110000 f
b110000 n
b1100 U
b1100 c
b1100 )"
b1000 ]
b1000 u
b1000 v
b1100 B
b1100 H
b11000000000000110000 t
b11 |
b11 *"
b1100 Y
b1100 g
b1100 $"
b1100 &"
b1100 #"
b11000000000000000000 W
b11000000000000000000 i
b11000000000000000000 '"
b1100 h
b1000 \
b1000 r
b1000 s
b100000000000110000000000001100 .
b100000000000110000000000001100 4
b100000000000110000000000001100 5
b100000000000110000000000001100 Q
b1 3
b111000 ^
b111000 o
b111000 q
b1000 [
b1000 k
b1000 m
b1000 p
b100 -
b100 <
b100 _
b100 l
b100 w
1)
#35
0)
#40
b11 Z
b11 z
b11 }
b11 (
b11 /
b11 2
b11 @
b11 `
b11 e
b11 x
b1100 V
b1100 d
b1100 ""
b111 S
b111 ~
b111 ,"
b11111111111111111111111111011100 X
b11111111111111111111111111011100 f
b11111111111111111111111111011100 n
b11111111111111111111111111110111 U
b11111111111111111111111111110111 c
b11111111111111111111111111110111 )"
b1100 ]
b1100 u
b1100 v
b110111 B
b110111 H
b1100111111111111111011100 t
b11 {
b111 |
b111 *"
b11111 +"
b11111111111111111111111111110111 Y
b11111111111111111111111111110111 g
b11111111111111111111111111110111 $"
b11111111111111111111111111110111 &"
b1111111111110111 #"
b11111111111101110000000000000000 W
b11111111111101110000000000000000 i
b11111111111101110000000000000000 '"
b1111111111110111 h
b11111 b
bx &
bx +
bx 1
bx 8
bx T
bx !"
bx %"
b1100 \
b1100 r
b1100 s
b100000011001111111111111110111 .
b100000011001111111111111110111 4
b100000011001111111111111110111 5
b100000011001111111111111110111 Q
b10 3
b11111111111111111111111111101000 ^
b11111111111111111111111111101000 o
b11111111111111111111111111101000 q
b1100 [
b1100 k
b1100 m
b1100 p
b1000 -
b1000 <
b1000 _
b1000 l
b1000 w
1)
#45
0)
#50
b110 A
b110 G
b110 J
b110 O
b110 a
b111 Z
b111 z
b111 }
1:
b0 ?
b0 E
b0 L
b0 P
b0 ("
b10 F
b10 I
b10 M
b111 (
b111 /
b111 2
b111 @
b111 `
b111 e
b111 x
b1100000000000010 N
b11 V
b11 d
b11 ""
b100 S
b100 ~
b100 ,"
b1000000010010100 X
b1000000010010100 f
b1000000010010100 n
b101 U
b101 c
b101 )"
b10000 ]
b10000 u
b10000 v
b0 C
b0 K
b100101 B
b100101 H
b11100010001000000010010100 t
b111 {
b10 |
b10 *"
b100 +"
b10000000100101 Y
b10000000100101 g
b10000000100101 $"
b10000000100101 &"
b10000000100101 #"
b100000001001010000000000000000 W
b100000001001010000000000000000 i
b100000001001010000000000000000 '"
b10000000100101 h
b0 b
b101 &
b101 +
b101 1
b101 8
b101 T
b101 !"
b101 %"
b10000 \
b10000 r
b10000 s
b111000100010000000100101 .
b111000100010000000100101 4
b111000100010000000100101 5
b111000100010000000100101 Q
b11 3
b1000000010100100 ^
b1000000010100100 o
b1000000010100100 q
b10000 [
b10000 k
b10000 m
b10000 p
b1100 -
b1100 <
b1100 _
b1100 l
b1100 w
1)
#55
0)
#60
b100 Z
b100 z
b100 }
b100 (
b100 /
b100 2
b100 @
b100 `
b100 e
b100 x
b101 A
b101 G
b101 J
b101 O
b101 a
b111 U
b111 c
b111 )"
b1100 V
b1100 d
b1100 ""
b111 &
b111 +
b111 1
b111 8
b111 T
b111 !"
b111 %"
b101 S
b101 ~
b101 ,"
b1010000010010000 X
b1010000010010000 f
b1010000010010000 n
b10100 ]
b10100 u
b10100 v
b100100 B
b100100 H
b1100100001010000010010000 t
b11 {
b100 |
b100 *"
b101 +"
b10100000100100 Y
b10100000100100 g
b10100000100100 $"
b10100000100100 &"
b10100000100100 #"
b101000001001000000000000000000 W
b101000001001000000000000000000 i
b101000001001000000000000000000 '"
b10100000100100 h
b10100 \
b10100 r
b10100 s
b11001000010100000100100 .
b11001000010100000100100 4
b11001000010100000100100 5
b11001000010100000100100 Q
b100 3
b1010000010100100 ^
b1010000010100100 o
b1010000010100100 q
b10100 [
b10100 k
b10100 m
b10100 p
b10000 -
b10000 <
b10000 _
b10000 l
b10000 w
1)
#65
0)
#70
b1011 Z
b1011 z
b1011 }
b1011 (
b1011 /
b1011 2
b1011 @
b1011 `
b1011 e
b1011 x
b0 A
b0 G
b0 J
b0 O
b0 a
b100 V
b100 d
b100 ""
b1010000010000000 X
b1010000010000000 f
b1010000010000000 n
b11000 ]
b11000 u
b11000 v
b100000 B
b100000 H
b10100100001010000010000000 t
b101 {
b10100000100000 Y
b10100000100000 g
b10100000100000 $"
b10100000100000 &"
b10100000100000 #"
b101000001000000000000000000000 W
b101000001000000000000000000000 i
b101000001000000000000000000000 '"
b10100000100000 h
b11000 \
b11000 r
b11000 s
b101001000010100000100000 .
b101001000010100000100000 4
b101001000010100000100000 5
b101001000010100000100000 Q
b101 3
b1010000010011000 ^
b1010000010011000 o
b1010000010011000 q
b11000 [
b11000 k
b11000 m
b11000 p
b10100 -
b10100 <
b10100 _
b10100 l
b10100 w
1)
#75
0)
#80
0;
09
0:
1D
b101 F
b101 I
b101 M
07
b1000 Z
b1000 z
b1000 }
b100000000101 N
b1 A
b1 G
b1 J
b1 O
b1 a
b1000 (
b1000 /
b1000 2
b1000 @
b1000 `
b1000 e
b1000 x
b11 U
b11 c
b11 )"
b11 &
b11 +
b11 1
b11 8
b11 T
b11 !"
b11 %"
b111 S
b111 ~
b111 ,"
b101000 X
b101000 f
b101000 n
b11100 ]
b11100 u
b11100 v
b100 C
b100 K
b1010 B
b1010 H
b10100111000000000000101000 t
b111 |
b111 *"
b0 +"
b1010 Y
b1010 g
b1010 $"
b1010 &"
b1010 #"
b10100000000000000000 W
b10100000000000000000 i
b10100000000000000000 '"
b1010 h
b1011 V
b1011 d
b1011 ""
b11100 \
b11100 r
b11100 s
b10000101001110000000000001010 .
b10000101001110000000000001010 4
b10000101001110000000000001010 5
b10000101001110000000000001010 Q
b110 3
b1000100 ^
b1000100 o
b1000100 q
b11100 [
b11100 k
b11100 m
b11100 p
b11000 -
b11000 <
b11000 _
b11000 l
b11000 w
1)
#85
0)
#90
17
b1001 A
b1001 G
b1001 J
b1001 O
b1001 a
b0 Z
b0 z
b0 }
19
1:
0D
b10 F
b10 I
b10 M
b0 (
b0 /
b0 2
b0 @
b0 `
b0 e
b0 x
b1100000000000010 N
b111 U
b111 c
b111 )"
b1100 V
b1100 d
b1100 ""
b111 &
b111 +
b111 1
b111 8
b111 T
b111 !"
b111 %"
b100 S
b100 ~
b100 ,"
b1000000010101000 X
b1000000010101000 f
b1000000010101000 n
b100000 ]
b100000 u
b100000 v
b0 C
b0 K
b101010 B
b101010 H
b1100100001000000010101000 t
b11 {
b100 |
b100 *"
b100 +"
b10000000101010 Y
b10000000101010 g
b10000000101010 $"
b10000000101010 &"
b10000000101010 #"
b100000001010100000000000000000 W
b100000001010100000000000000000 i
b100000001010100000000000000000 '"
b10000000101010 h
b100000 \
b100000 r
b100000 s
b11001000010000000101010 .
b11001000010000000101010 4
b11001000010000000101010 5
b11001000010000000101010 Q
b111 3
b1000000011001000 ^
b1000000011001000 o
b1000000011001000 q
b100000 [
b100000 k
b100000 m
b100000 p
b11100 -
b11100 <
b11100 _
b11100 l
b11100 w
1)
#95
0)
#100
1;
b0 Z
b0 z
b0 }
09
0:
1D
b101 F
b101 I
b101 M
17
b0 (
b0 /
b0 2
b0 @
b0 `
b0 e
b0 x
b100000000101 N
b1 A
b1 G
b1 J
b1 O
b1 a
b0 V
b0 d
b0 ""
b0 S
b0 ~
b0 ,"
b100 X
b100 f
b100 n
b0 U
b0 c
b0 )"
b101000 ]
b101000 u
b101000 v
b100 C
b100 K
b1 B
b1 H
b10000000000000000000000100 t
b100 {
b0 |
b0 *"
b0 +"
b1 Y
b1 g
b1 $"
b1 &"
b1 #"
b10000000000000000 W
b10000000000000000 i
b10000000000000000 '"
b1 h
b0 &
b0 +
b0 1
b0 8
b0 T
b0 !"
b0 %"
b101000 \
b101000 r
b101000 s
b10000100000000000000000000001 .
b10000100000000000000000000001 4
b10000100000000000000000000001 5
b10000100000000000000000000001 Q
b1000 3
b101000 ^
b101000 o
b101000 q
b100100 [
b100100 k
b100100 m
b100100 p
b100000 -
b100000 <
b100000 _
b100000 l
b100000 w
1)
#105
0)
#110
b1001 A
b1001 G
b1001 J
b1001 O
b1001 a
0;
b1 Z
b1 z
b1 }
19
1:
0D
b10 F
b10 I
b10 M
07
b1 (
b1 /
b1 2
b1 @
b1 `
b1 e
b1 x
b1100000000000010 N
b101 U
b101 c
b101 )"
b11 V
b11 d
b11 ""
b101 &
b101 +
b101 1
b101 8
b101 T
b101 !"
b101 %"
b100 S
b100 ~
b100 ,"
b1000000010101000 X
b1000000010101000 f
b1000000010101000 n
b101100 ]
b101100 u
b101100 v
b0 C
b0 K
b101010 B
b101010 H
b11100010001000000010101000 t
b111 {
b10 |
b10 *"
b100 +"
b10000000101010 Y
b10000000101010 g
b10000000101010 $"
b10000000101010 &"
b10000000101010 #"
b100000001010100000000000000000 W
b100000001010100000000000000000 i
b100000001010100000000000000000 '"
b10000000101010 h
b101100 \
b101100 r
b101100 s
b111000100010000000101010 .
b111000100010000000101010 4
b111000100010000000101010 5
b111000100010000000101010 Q
b1010 3
b1000000011010100 ^
b1000000011010100 o
b1000000011010100 q
b101100 [
b101100 k
b101100 m
b101100 p
b101000 -
b101000 <
b101000 _
b101000 l
b101000 w
1)
#115
0)
#120
b1100 Z
b1100 z
b1100 }
b1100 (
b1100 /
b1100 2
b1100 @
b1100 `
b1100 e
b1100 x
b0 A
b0 G
b0 J
b0 O
b0 a
b1011 U
b1011 c
b1011 )"
b1 V
b1 d
b1 ""
b1011 &
b1011 +
b1011 1
b1011 8
b1011 T
b1011 !"
b1011 %"
b111 S
b111 ~
b111 ,"
b1110000010000000 X
b1110000010000000 f
b1110000010000000 n
b110000 ]
b110000 u
b110000 v
b100000 B
b100000 H
b10000101001110000010000000 t
b100 {
b101 |
b101 *"
b111 +"
b11100000100000 Y
b11100000100000 g
b11100000100000 $"
b11100000100000 &"
b11100000100000 #"
b111000001000000000000000000000 W
b111000001000000000000000000000 i
b111000001000000000000000000000 '"
b11100000100000 h
b110000 \
b110000 r
b110000 s
b100001010011100000100000 .
b100001010011100000100000 4
b100001010011100000100000 5
b100001010011100000100000 Q
b1011 3
b1110000010110000 ^
b1110000010110000 o
b1110000010110000 q
b110000 [
b110000 k
b110000 m
b110000 p
b101100 -
b101100 <
b101100 _
b101100 l
b101100 w
1)
#125
0)
#130
b111 Z
b111 z
b111 }
b111 (
b111 /
b111 2
b111 @
b111 `
b111 e
b111 x
b1 A
b1 G
b1 J
b1 O
b1 a
b101 U
b101 c
b101 )"
b1100 V
b1100 d
b1100 ""
b101 &
b101 +
b101 1
b101 8
b101 T
b101 !"
b101 %"
b1110000010001000 X
b1110000010001000 f
b1110000010001000 n
b110100 ]
b110100 u
b110100 v
b100010 B
b100010 H
b11100010001110000010001000 t
b111 {
b10 |
b10 *"
b11100000100010 Y
b11100000100010 g
b11100000100010 $"
b11100000100010 &"
b11100000100010 #"
b111000001000100000000000000000 W
b111000001000100000000000000000 i
b111000001000100000000000000000 '"
b11100000100010 h
b110100 \
b110100 r
b110100 s
b111000100011100000100010 .
b111000100011100000100010 4
b111000100011100000100010 5
b111000100011100000100010 Q
b1100 3
b1110000010111100 ^
b1110000010111100 o
b1110000010111100 q
b110100 [
b110100 k
b110100 m
b110100 p
b110000 -
b110000 <
b110000 _
b110000 l
b110000 w
1)
#135
0)
#140
07
09
0:
b1 ?
b1 E
b1 L
b1 P
b1 ("
1'
b100 F
b100 I
b100 M
b1010000 Z
b1010000 z
b1010000 }
b1010000000100 N
b0 A
b0 G
b0 J
b0 O
b0 a
b1010000 (
b1010000 /
b1010000 2
b1010000 @
b1010000 `
b1010000 e
b1010000 x
b1000100 U
b1000100 c
b1000100 )"
b111 &
b111 +
b111 1
b111 8
b111 T
b111 !"
b111 %"
b111 S
b111 ~
b111 ,"
b100010000 X
b100010000 f
b100010000 n
b111000 ]
b111000 u
b111000 v
b101011 C
b101011 K
b100 B
b100 H
b1100111000000000100010000 t
b11 {
b111 |
b111 *"
b0 +"
b1000100 Y
b1000100 g
b1000100 $"
b1000100 &"
b1000100 #"
b10001000000000000000000 W
b10001000000000000000000 i
b10001000000000000000000 '"
b1000100 h
b1 b
b1100 V
b1100 d
b1100 ""
b111000 \
b111000 r
b111000 s
b10101100011001110000000001000100 .
b10101100011001110000000001000100 4
b10101100011001110000000001000100 5
b10101100011001110000000001000100 Q
b1101 3
b101001000 ^
b101001000 o
b101001000 q
b111000 [
b111000 k
b111000 m
b111000 p
b110100 -
b110100 <
b110100 _
b110100 l
b110100 w
1)
#145
0)
#150
b111 Z
b111 z
b111 }
19
0'
1=
b11 F
b11 I
b11 M
b1001001000000011 N
b0 V
b0 d
b0 ""
b101 &
b101 +
b101 1
b101 8
b101 T
b101 !"
b101 %"
b10 S
b10 ~
b10 ,"
b101000000 X
b101000000 f
b101000000 n
b1010000 U
b1010000 c
b1010000 )"
b111100 ]
b111100 u
b111100 v
b100011 C
b100011 K
b10000 B
b10000 H
b10000000000101000000 t
b0 {
b10 |
b10 *"
b1010000 Y
b1010000 g
b1010000 $"
b1010000 &"
b1010000 #"
b10100000000000000000000 W
b10100000000000000000000 i
b10100000000000000000000 '"
b1010000 h
b111100 \
b111100 r
b111100 s
b10001100000000100000000001010000 .
b10001100000000100000000001010000 4
b10001100000000100000000001010000 5
b10001100000000100000000001010000 Q
b1110 3
b111 ,
b111 0
b111 6
b111 R
b111 y
b101111100 ^
b101111100 o
b101111100 q
b111100 [
b111100 k
b111100 m
b111100 p
b111000 -
b111000 <
b111000 _
b111000 l
b111000 w
1)
#155
0)
#160
17
b0 Z
b0 z
b0 }
bx ,
bx 0
bx 6
bx R
bx y
09
b0 ?
b0 E
b0 L
b0 P
b0 ("
0=
1>
b111 F
b111 I
b111 M
b0 (
b0 /
b0 2
b0 @
b0 `
b0 e
b0 x
b100000111 N
b0 S
b0 ~
b0 ,"
b1000100 X
b1000100 f
b1000100 n
b0 U
b0 c
b0 )"
b1000100 ]
b1000100 u
b1000100 v
b10 C
b10 K
b10001 B
b10001 H
b1000100 t
b0 |
b0 *"
b10001 Y
b10001 g
b10001 $"
b10001 &"
b10001 #"
b100010000000000000000 W
b100010000000000000000 i
b100010000000000000000 '"
b10001 h
b0 b
b0 &
b0 +
b0 1
b0 8
b0 T
b0 !"
b0 %"
b1000000 \
b1000000 r
b1000000 s
b1000000000000000000000010001 .
b1000000000000000000000010001 4
b1000000000000000000000010001 5
b1000000000000000000000010001 Q
b1111 3
b10000100 ^
b10000100 o
b10000100 q
b1000000 [
b1000000 k
b1000000 m
b1000000 p
b111100 -
b111100 <
b111100 _
b111100 l
b111100 w
1)
#165
0)
#170
b1010100 Z
b1010100 z
b1010100 }
b1 ?
b1 E
b1 L
b1 P
b1 ("
1'
0>
b100 F
b100 I
b100 M
07
b1010100 (
b1010100 /
b1010100 2
b1010100 @
b1010100 `
b1010100 e
b1010100 x
b1010000000100 N
b1010100 U
b1010100 c
b1010100 )"
b1001000 ]
b1001000 u
b1001000 v
b111 &
b111 +
b111 1
b111 8
b111 T
b111 !"
b111 %"
b10 S
b10 ~
b10 ,"
b101010000 X
b101010000 f
b101010000 n
b101011 C
b101011 K
b10100 B
b10100 H
b10000000000101010000 t
b10 |
b10 *"
b1010100 Y
b1010100 g
b1010100 $"
b1010100 &"
b1010100 #"
b10101000000000000000000 W
b10101000000000000000000 i
b10101000000000000000000 '"
b1010100 h
b1 b
b1001000 \
b1001000 r
b1001000 s
b10101100000000100000000001010100 .
b10101100000000100000000001010100 4
b10101100000000100000000001010100 5
b10101100000000100000000001010100 Q
b10001 3
b110011000 ^
b110011000 o
b110011000 q
b1001000 [
b1001000 k
b1001000 m
b1001000 p
b1000100 -
b1000100 <
b1000100 _
b1000100 l
b1000100 w
1)
